{
    "response": {
        "status": "ok",
        "userTier": "developer",
        "total": 27044,
        "startIndex": 1,
        "pageSize": 10,
        "currentPage": 1,
        "pages": 2705,
        "orderBy": "relevance",
        "results": [
            {
                "id": "artanddesign/2024/apr/08/artists-ai-dilemma-can-artificial-intelligence-make-intelligent-art",
                "type": "article",
                "sectionId": "artanddesign",
                "sectionName": "Art and design",
                "webPublicationDate": "2024-04-08T06:00:26Z",
                "webTitle": "Artists’ AI dilemma: can artificial intelligence make intelligent art?",
                "webUrl": "https://www.theguardian.com/artanddesign/2024/apr/08/artists-ai-dilemma-can-artificial-intelligence-make-intelligent-art",
                "apiUrl": "https://content.guardianapis.com/artanddesign/2024/apr/08/artists-ai-dilemma-can-artificial-intelligence-make-intelligent-art",
                "isHosted": false,
                "pillarId": "pillar/arts",
                "pillarName": "Arts"
            },
            {
                "id": "technology/2024/apr/30/amazon-sales-report-ai",
                "type": "article",
                "sectionId": "technology",
                "sectionName": "Technology",
                "webPublicationDate": "2024-04-30T22:47:44Z",
                "webTitle": "Amazon sales soar with boost from artificial intelligence and advertising",
                "webUrl": "https://www.theguardian.com/technology/2024/apr/30/amazon-sales-report-ai",
                "apiUrl": "https://content.guardianapis.com/technology/2024/apr/30/amazon-sales-report-ai",
                "isHosted": false,
                "pillarId": "pillar/news",
                "pillarName": "News"
            },
            {
                "id": "media/2024/apr/29/chatgpt-openai-ft-journalism-train-artificial-intelligence-systems",
                "type": "article",
                "sectionId": "media",
                "sectionName": "Media",
                "webPublicationDate": "2024-04-29T16:36:02Z",
                "webTitle": "OpenAI to use FT journalism to train artificial intelligence systems",
                "webUrl": "https://www.theguardian.com/media/2024/apr/29/chatgpt-openai-ft-journalism-train-artificial-intelligence-systems",
                "apiUrl": "https://content.guardianapis.com/media/2024/apr/29/chatgpt-openai-ft-journalism-train-artificial-intelligence-systems",
                "isHosted": false,
                "pillarId": "pillar/news",
                "pillarName": "News"
            },
            {
                "id": "business/2024/feb/23/nvidia-ai-stock-market",
                "type": "article",
                "sectionId": "business",
                "sectionName": "Business",
                "webPublicationDate": "2024-02-23T21:16:25Z",
                "webTitle": "US chipmaker Nvidia hits $2tn value amid artificial intelligence boom",
                "webUrl": "https://www.theguardian.com/business/2024/feb/23/nvidia-ai-stock-market",
                "apiUrl": "https://content.guardianapis.com/business/2024/feb/23/nvidia-ai-stock-market",
                "isHosted": false,
                "pillarId": "pillar/news",
                "pillarName": "News"
            },
            {
                "id": "australia-news/2024/jan/18/cyclone-forecasting-boosted-by-artificial-intelligence-offers-earlier-forecasts",
                "type": "article",
                "sectionId": "australia-news",
                "sectionName": "Australia news",
                "webPublicationDate": "2024-01-17T23:20:21Z",
                "webTitle": "Cyclone forecasting boosted by artificial intelligence offers earlier path tracking",
                "webUrl": "https://www.theguardian.com/australia-news/2024/jan/18/cyclone-forecasting-boosted-by-artificial-intelligence-offers-earlier-forecasts",
                "apiUrl": "https://content.guardianapis.com/australia-news/2024/jan/18/cyclone-forecasting-boosted-by-artificial-intelligence-offers-earlier-forecasts",
                "isHosted": false,
                "pillarId": "pillar/news",
                "pillarName": "News"
            },
            {
                "id": "lifeandstyle/2023/nov/19/for-which-tasks-is-artificial-intelligence-least-well-suited",
                "type": "article",
                "sectionId": "lifeandstyle",
                "sectionName": "Life and style",
                "webPublicationDate": "2023-11-19T14:01:04Z",
                "webTitle": "For which tasks is artificial intelligence least well suited?",
                "webUrl": "https://www.theguardian.com/lifeandstyle/2023/nov/19/for-which-tasks-is-artificial-intelligence-least-well-suited",
                "apiUrl": "https://content.guardianapis.com/lifeandstyle/2023/nov/19/for-which-tasks-is-artificial-intelligence-least-well-suited",
                "isHosted": false,
                "pillarId": "pillar/lifestyle",
                "pillarName": "Lifestyle"
            },
            {
                "id": "commentisfree/2023/nov/22/openai-chatgpt-artificial-general-intelligence-race-acceleration",
                "type": "article",
                "sectionId": "commentisfree",
                "sectionName": "Opinion",
                "webPublicationDate": "2023-11-22T10:12:04Z",
                "webTitle": "The OpenAI meltdown will only accelerate the artificial intelligence race | Sarah Kreps",
                "webUrl": "https://www.theguardian.com/commentisfree/2023/nov/22/openai-chatgpt-artificial-general-intelligence-race-acceleration",
                "apiUrl": "https://content.guardianapis.com/commentisfree/2023/nov/22/openai-chatgpt-artificial-general-intelligence-race-acceleration",
                "isHosted": false,
                "pillarId": "pillar/opinion",
                "pillarName": "Opinion"
            },
            {
                "id": "environment/2023/oct/26/pigeons-smart-ai-learning",
                "type": "article",
                "sectionId": "environment",
                "sectionName": "Environment",
                "webPublicationDate": "2023-10-26T09:00:30Z",
                "webTitle": "Pigeons problem-solve similarly to artificial intelligence, research shows",
                "webUrl": "https://www.theguardian.com/environment/2023/oct/26/pigeons-smart-ai-learning",
                "apiUrl": "https://content.guardianapis.com/environment/2023/oct/26/pigeons-smart-ai-learning",
                "isHosted": false,
                "pillarId": "pillar/news",
                "pillarName": "News"
            },
            {
                "id": "technology/2024/jan/21/can-the-power-of-artificial-intelligence-be-harnessed-help-to-predict-australias-weather",
                "type": "article",
                "sectionId": "australia-news",
                "sectionName": "Australia news",
                "webPublicationDate": "2024-01-20T19:00:08Z",
                "webTitle": "Can the power of artificial intelligence be harnessed to help predict Australia’s weather?",
                "webUrl": "https://www.theguardian.com/technology/2024/jan/21/can-the-power-of-artificial-intelligence-be-harnessed-help-to-predict-australias-weather",
                "apiUrl": "https://content.guardianapis.com/technology/2024/jan/21/can-the-power-of-artificial-intelligence-be-harnessed-help-to-predict-australias-weather",
                "isHosted": false,
                "pillarId": "pillar/news",
                "pillarName": "News"
            },
            {
                "id": "lifeandstyle/2023/nov/26/readers-reply-for-which-tasks-is-artificial-intelligence-least-well-suited",
                "type": "article",
                "sectionId": "lifeandstyle",
                "sectionName": "Life and style",
                "webPublicationDate": "2023-11-26T14:00:20Z",
                "webTitle": "Readers reply: for which tasks is artificial intelligence least well suited?",
                "webUrl": "https://www.theguardian.com/lifeandstyle/2023/nov/26/readers-reply-for-which-tasks-is-artificial-intelligence-least-well-suited",
                "apiUrl": "https://content.guardianapis.com/lifeandstyle/2023/nov/26/readers-reply-for-which-tasks-is-artificial-intelligence-least-well-suited",
                "isHosted": false,
                "pillarId": "pillar/lifestyle",
                "pillarName": "Lifestyle"
            }
        ]
    }
}